{
  "current_page": 1,
  "data": [
    {
      "id": 37,
      "name": "وهيب الدخيل",
      "title": "بودكاست جدد حياتك",
      "description": "البودكاست حواري مع الإعلامي وهيب الدخيل يتم فيه تناول مواضيع طبية و صحية ورياضية وعن التغذية والجمال بحضور ضيف مختص واستقبال الاتصال من المستمعين ورسائلهم وتقديم الاستشارات المباشرة على الهواء لمدة ساعة كاملة .",
      "hashtag": "#MBCPodcasts",
      "thumbnail": "https://mbc-mood.s3.amazonaws.com/podcasts/1671979356JD_1000_OP.png",
      "image": "https://mbc-mood.s3.amazonaws.com/podcasts/1671979356JD_wide.png",
      "channel_name": "MBC FM",
      "channel_logo": "https://mbc-mood.s3.amazonaws.com/channels/16439614501635428726MBCfmmob.png",
      "last_episode": 5,
      "highlighted": true,
      "page_name": "/radioChannel/MBC FM/podcasts/وهيب الدخيل/بودكاست جدد حياتك",
      "channel_id": 3,
      "share_link": "https://mbcradios.net/#/podcast-single/37"
    },
    {
      "id": 36,
      "name": "م. يوسف شحادة الأديب",
      "title": "Tech IT Easy",
      "description": "تتطور التكنولوجيا يوم بعد يوم لدرجة أنها أصبحت جزء لايتجزأ من حياتنا اليومية، \r\nلذلك قمنا بعمل هذا البودكاست والذي نهدف من خلاله لطرح أهم مواضيع تكنولوجيا المعلومات المعقدة،\r\nوشرحها بطرق بسيطة. ب 10 دقائق فقط سنقدم للمستمع العربي أهم النصائح والمعلومات التقنية التي تغني معرفته وثقافته \r\nو وعيه في هذا المجال مع المهندس يوسف شحادة الأديب.",
      "hashtag": "#MBCPodcasts",
      "thumbnail": "https://mbc-mood.s3.amazonaws.com/podcasts/1671456273Tech_IT_EASY-1000.png",
      "image": "https://mbc-mood.s3.amazonaws.com/podcasts/1671456473Tech_IT_EASY_Wide.png",
      "channel_name": "Panorama FM",
      "channel_logo": "https://mbc-mood.s3.amazonaws.com/channels/16439607661635521293panorama.png",
      "last_episode": 1,
      "highlighted": true,
      "page_name": "/radioChannel/Panorama FM/podcasts/م. يوسف شحادة الأديب/Tech IT Easy",
      "channel_id": 6,
      "share_link": "https://mbcradios.net/#/podcast-single/36"
    },
    {
      "id": 35,
      "name": "محمد الكردي",
      "title": "اكتشافات",
      "description": "سلسله وثائقية من تقديم محمد الكردي،\r\nتتحدث عن أبرز الاكتشافات على مر العصور التي ساهمت في تقدم وتطور البشرية.",
      "hashtag": "#MBCPodcasts",
      "thumbnail": "https://mbc-mood.s3.amazonaws.com/podcasts/1671454040Discoveries-1080.png",
      "image": "https://mbc-mood.s3.amazonaws.com/podcasts/1671454040Discoveries-wide.png",
      "channel_name": "Panorama FM",
      "channel_logo": "https://mbc-mood.s3.amazonaws.com/channels/16439607661635521293panorama.png",
      "last_episode": 27,
      "highlighted": true,
      "page_name": "/radioChannel/Panorama FM/podcasts/محمد الكردي/اكتشافات",
      "channel_id": 6,
      "share_link": "https://mbcradios.net/#/podcast-single/35"
    },
    {
      "id": 34,
      "name": "جيسي كرم",
      "title": "Money Matters - البودكاست",
      "description": "المال هو في أساس استمرارية عجلة الحياة،\r\nوقد تكون إدارة عالم المال مع الحفاظ على نمط حياة هادئ ومريح أمرًا صعبًا للغاية.\r\n\"جيسي\"، ستطرح في هذا البودكاست مواضيع حوارية إقتصادية لتسليط الضوء\r\nعلى مسائل مالية تهم كل فرد منّا، باستضافة متخصصين ومتخصصات في هذ المجال.",
      "hashtag": "#MBCPodcasts",
      "thumbnail": "https://mbc-mood.s3.amazonaws.com/podcasts/1671001954Money_Matters_The_Podcast.png",
      "image": "https://mbc-mood.s3.amazonaws.com/podcasts/1671001954Money Matters_Wide.png",
      "channel_name": "Panorama FM",
      "channel_logo": "https://mbc-mood.s3.amazonaws.com/channels/16439607661635521293panorama.png",
      "last_episode": 7,
      "highlighted": true,
      "page_name": "/radioChannel/Panorama FM/podcasts/جيسي كرم/Money Matters - البودكاست",
      "channel_id": 6,
      "share_link": "https://mbcradios.net/#/podcast-single/34"
    },
    {
      "id": 33,
      "name": "هدى ياسين",
      "title": "هدى وهن - البودكاست",
      "description": "\"هدى وهن\"،\r\nالبودكاست الحواري الآجتماعي، مع الإعلامية هدى ياسين.\r\nيتناول في كل حلقة جانب من جوانب التعليم،\r\nويستضيف متخصصين ومتخصصات بالمواضيع المطروحة.",
      "hashtag": "#MBCPodcasts",
      "thumbnail": "https://mbc-mood.s3.amazonaws.com/podcasts/1670583249Huda-Wa-Huna-EDU.png",
      "image": "https://mbc-mood.s3.amazonaws.com/podcasts/1670583249Huda-Wa-Huna-Cover-wd.png",
      "channel_name": "Panorama FM",
      "channel_logo": "https://mbc-mood.s3.amazonaws.com/channels/16439607661635521293panorama.png",
      "last_episode": 7,
      "highlighted": true,
      "page_name": "/radioChannel/Panorama FM/podcasts/هدى ياسين/هدى وهن - البودكاست",
      "channel_id": 6,
      "share_link": "https://mbcradios.net/#/podcast-single/33"
    },
    {
      "id": 32,
      "name": "Elissa",
      "title": "Elissa - The Podcast",
      "description": "إطلالة لا تشبه أيًا من إطلالاتها السابقة، ومواضيع جريئة تتطرّق إليها الفنانة \"إليسا\"،\r\nلتشارك المستمعين حكايات وآراء لم يسمعوها من قبل. \r\nبودكاست إليسا، هو الأوّل من نوعه في العالم العربي تتكلّم فيه عن قضايا مختلفة في كل حلقة من الحلقات،\r\nمثل تجاربها الشخصية، الصحة النفسية، التنمر، تحديات بداياتها الفنية، جذورها وعائلتها،\r\nوقصص حصريّة عن أغانيها وغيرها من المواضيع العامّة والخاصّة.",
      "hashtag": "#Elissa",
      "thumbnail": "https://mbc-mood.s3.amazonaws.com/podcasts/1668498854Elissa.png",
      "image": "https://mbc-mood.s3.amazonaws.com/podcasts/1668498854Elissa_wide.png",
      "channel_name": "MBC FM",
      "channel_logo": "https://mbc-mood.s3.amazonaws.com/channels/16439614501635428726MBCfmmob.png",
      "last_episode": 6,
      "highlighted": true,
      "page_name": "/radioChannel/MBC FM/podcasts/Elissa/Elissa - The Podcast",
      "channel_id": 3,
      "share_link": "https://mbcradios.net/#/podcast-single/32"
    },
    {
      "id": 31,
      "name": "حاتم البدراني",
      "title": "قصة طموح",
      "description": "بودكاست \"قصة طموح\" مخصص لشرح رؤية ٢٠٣٠ بكل أهدافها والإنجازات التي حققتها المملكة لليوم والتي كانت خير دليل على ان الرؤية كلام وفعل، ومستقبل واعد بانتظار أبناء المملكة.",
      "hashtag": "#هي_لنا_دار",
      "thumbnail": "https://mbc-mood.s3.amazonaws.com/podcasts/1663916680Saudi_National_Day_92_Podcast_MBC_FM.png",
      "image": "https://mbc-mood.s3.amazonaws.com/podcasts/1663916679Saudi_National_Day_92_Podcast_MBC_FM-Wide.png",
      "channel_name": "MBC FM",
      "channel_logo": "https://mbc-mood.s3.amazonaws.com/channels/16439614501635428726MBCfmmob.png",
      "last_episode": 7,
      "highlighted": true,
      "page_name": "/radioChannel/MBC FM/podcasts/حاتم البدراني/قصة طموح",
      "channel_id": 3,
      "share_link": "https://mbcradios.net/#/podcast-single/31"
    },
    {
      "id": 30,
      "name": "تغريد الهويش",
      "title": "العاصوف بودكاست",
      "description": "في هذا البودكاست الرسمي للمسلسل الذي جسد واقع كل منزل سعودي العاصوف، يروي كل ممثل لتغريد الهويش ليس فقط عن الكواليس واجواء التصوير لكن أيضاً عن مشاعرعاصرها في زمن لا يشبه اليوم",
      "hashtag": "#MBCPodcasts",
      "thumbnail": "https://mbc-mood.s3.amazonaws.com/podcasts/1650112615al-asouf-coverart.jpeg",
      "image": "https://mbc-mood.s3.amazonaws.com/podcasts/1650112917al-asouf-cover.jpg",
      "channel_name": "MBC FM",
      "channel_logo": "https://mbc-mood.s3.amazonaws.com/channels/16439614501635428726MBCfmmob.png",
      "last_episode": 4,
      "highlighted": true,
      "page_name": "/radioChannel/MBC FM/podcasts/تغريد الهويش/العاصوف بودكاست",
      "channel_id": 3,
      "share_link": "https://mbcradios.net/#/podcast-single/30"
    },
    {
      "id": 29,
      "name": "احمد و جمانا",
      "title": "شاهد على شاهد بودكاست",
      "description": "يقال \"المكتوب يعرف من عنوانه\".\r\nولكن أحياناً، عنوان الفيلم او المسلسل ليس كافياً للتعرّف على مضمونه، فنخسر الكثير من الوقت، ونحن نحاول إيجاد فيلم أو مسلسل لمشاهدته.\r\nمن هنا جاء \"شاهد على شاهد\"، بودكاست مع \"أحمد و جمانا\"، حيث كل واحد منهم يروي للآخر عن المسلسلات التي يقوم بمشاهدتها، فيساعدونك بذلك على اختيار المسلسل الذي يناسب رغبتك، بالإضافة الى اسرار عديدة و تفاصيل من خلف الكواليس سوف تكشف للمرة الأولى،\r\nو مفاجأة مع نجوم شاهد في نهاية كل حلقة.",
      "hashtag": "#MBCPodcasts",
      "thumbnail": "https://mbc-mood.s3.amazonaws.com/podcasts/1649427915CoverArt.jpeg",
      "image": "https://mbc-mood.s3.amazonaws.com/podcasts/1649755515shahid-3ala-shahid-cover.jpg",
      "channel_name": "MBC FM",
      "channel_logo": "https://mbc-mood.s3.amazonaws.com/channels/16439614501635428726MBCfmmob.png",
      "last_episode": 8,
      "highlighted": true,
      "page_name": "/radioChannel/MBC FM/podcasts/احمد و جمانا/شاهد على شاهد بودكاست",
      "channel_id": 3,
      "share_link": "https://mbcradios.net/#/podcast-single/29"
    },
    {
      "id": 28,
      "name": "جو طراد",
      "title": "عروس بيروت بودكاست",
      "description": "في هذا البودكاست الرسمي للمسلسل الناجح عروس بيروت، يستضيف الممثل جو طراد زملاءه للتحدث عن أجمل وأبرز اللحظات التي مروا بها أثناء التصوير.",
      "hashtag": "#MBCPodcasts",
      "thumbnail": "https://mbc-mood.s3.amazonaws.com/podcasts/1648393663Arous-Beirut-Coverart.jpg",
      "image": "https://mbc-mood.s3.amazonaws.com/podcasts/1649755500arouse-Beiruit-cover.jpg",
      "channel_name": "MBC FM",
      "channel_logo": "https://mbc-mood.s3.amazonaws.com/channels/16439614501635428726MBCfmmob.png",
      "last_episode": 6,
      "highlighted": true,
      "page_name": "/radioChannel/MBC FM/podcasts/جو طراد/عروس بيروت بودكاست",
      "channel_id": 3,
      "share_link": "https://mbcradios.net/#/podcast-single/28"
    },
    {
      "id": 27,
      "name": "دانية شافعي",
      "title": "توتة توتة",
      "description": "استمتع بالدفء والراحة مع دانية الشافعي وهي تقرأ قصصا مؤثرة قبل النوم من غرفة نومها المريحة.",
      "hashtag": "#ShahidOriginal",
      "thumbnail": "https://mbc-mood.s3.amazonaws.com/podcasts/1647866340Tora_Tota_Podcast_500x500.jpg",
      "image": "https://mbc-mood.s3.amazonaws.com/podcasts/1649755485toota-toota-podcast-cover.jpg",
      "channel_name": "MBC FM",
      "channel_logo": "https://mbc-mood.s3.amazonaws.com/channels/16439614501635428726MBCfmmob.png",
      "last_episode": 30,
      "highlighted": true,
      "page_name": "/radioChannel/MBC FM/podcasts/دانية شافعي/توتة توتة",
      "channel_id": 3,
      "share_link": "https://mbcradios.net/#/podcast-single/27"
    },
    {
      "id": 26,
      "name": "مصطفى الآغا و مي الخطيب",
      "title": "واحد منكم",
      "description": "يأتيكم مصطفى الآغا و زوجته مي الخطيب بشخصياتهم الطبيعية كواحد وواحدة منكم في مواضيع من الحياة اليومية والتجارب الشخصية بطابع بسيط وخفيف عبر بودكاست واحد منكم.",
      "hashtag": "#MBCPodcasts",
      "thumbnail": "https://mbc-mood.s3.amazonaws.com/podcasts/1645903523WAHAD-Menkom-mustafa-al-agha1.png",
      "image": "https://mbc-mood.s3.amazonaws.com/podcasts/1645903522WAHAD-Menkom-mustafa-al-agha-Wide.png",
      "channel_name": "MBC FM",
      "channel_logo": "https://mbc-mood.s3.amazonaws.com/channels/16439614501635428726MBCfmmob.png",
      "last_episode": 10,
      "highlighted": true,
      "page_name": "/radioChannel/MBC FM/podcasts/مصطفى الآغا و مي الخطيب/واحد منكم",
      "channel_id": 3,
      "share_link": "https://mbcradios.net/#/podcast-single/26"
    },
    {
      "id": 25,
      "name": "عبدالعزيز الجوهر",
      "title": "يوم التأسيس",
      "description": "",
      "hashtag": "#MBCPodcasts",
      "thumbnail": "https://mbc-mood.s3.amazonaws.com/podcasts/1645430842founding_day_cover500.png",
      "image": "https://mbc-mood.s3.amazonaws.com/podcasts/1645430842founding_day_cover500.png",
      "channel_name": "MBC FM",
      "channel_logo": "https://mbc-mood.s3.amazonaws.com/channels/16439614501635428726MBCfmmob.png",
      "last_episode": 5,
      "highlighted": false,
      "page_name": "/radioChannel/MBC FM/podcasts/عبدالعزيز الجوهر/يوم التأسيس",
      "channel_id": 3,
      "share_link": "https://mbcradios.net/#/podcast-single/25"
    },
    {
      "id": 24,
      "name": "Amani Mousa and Yaser Alshumrany",
      "title": "Joy Awards Podcast",
      "description": "MBC Podcasts presents: The stars of the Arab world join Amani Mousa and Yaser Alshumrany in a series of candid conversations.",
      "hashtag": "#MBCPodcasts",
      "thumbnail": "https://mbc-mood.s3.amazonaws.com/podcasts/1645770023joyawards-Cover.jpg",
      "image": "https://mbc-mood.s3.amazonaws.com/podcasts/1645770023joyawards-wide.jpg",
      "channel_name": "MBC FM",
      "channel_logo": "https://mbc-mood.s3.amazonaws.com/channels/16439614501635428726MBCfmmob.png",
      "last_episode": 7,
      "highlighted": false,
      "page_name": "/radioChannel/MBC FM/podcasts/Amani Mousa and Yaser Alshumrany/Joy Awards Podcast",
      "channel_id": 3,
      "share_link": "https://mbcradios.net/#/podcast-single/24"
    },
    {
      "id": 23,
      "name": "حاتم البدراني",
      "title": "ام اللغات",
      "description": "8 حلقات 7-10 دقائق، سلسلة قصيرة بمناسبة اليوم العالمي للغة العربية تقدم لمحات عن لغتنا وقيمتها والظروف التي مرت بها، ودورها في مختلف علوم الحياة والثقافات والحضارات.",
      "hashtag": "#أم_اللغات",
      "thumbnail": "https://mbc-mood.s3.amazonaws.com/podcasts/1645771555Loghat.jpg",
      "image": "https://mbc-mood.s3.amazonaws.com/podcasts/1620131517mbc[1].png",
      "channel_name": "MBC FM",
      "channel_logo": "https://mbc-mood.s3.amazonaws.com/channels/16439614501635428726MBCfmmob.png",
      "last_episode": 7,
      "highlighted": false,
      "page_name": "/radioChannel/MBC FM/podcasts/حاتم البدراني/ام اللغات",
      "channel_id": 3,
      "share_link": "https://mbcradios.net/#/podcast-single/23"
    }
  ],
  "first_page_url": "/podcasts?page=1",
  "from": 1,
  "last_page": 2,
  "last_page_url": "/podcasts?page=2",
  "next_page_url": "/podcasts?page=2",
  "path": "/podcasts",
  "per_page": 15,
  "prev_page_url": null,
  "to": 15,
  "total": 24
}